('/home/armando/Documents/code/python/automate/build/py_to_exe/py_to_exe.pkg',
 {'BINARY': True,
  'DATA': True,
  'EXECUTABLE': True,
  'EXTENSION': True,
  'PYMODULE': True,
  'PYSOURCE': True,
  'PYZ': False,
  'SPLASH': True,
  'SYMLINK': False},
 [('pyi-contents-directory _internal', '', 'OPTION'),
  ('PYZ-00.pyz',
   '/home/armando/Documents/code/python/automate/build/py_to_exe/PYZ-00.pyz',
   'PYZ'),
  ('lib-dynload/_struct.cpython-311-x86_64-linux-gnu.so',
   '/home/armando/anaconda3/envs/automate/lib/python3.11/lib-dynload/_struct.cpython-311-x86_64-linux-gnu.so',
   'EXTENSION'),
  ('lib-dynload/zlib.cpython-311-x86_64-linux-gnu.so',
   '/home/armando/anaconda3/envs/automate/lib/python3.11/lib-dynload/zlib.cpython-311-x86_64-linux-gnu.so',
   'EXTENSION'),
  ('struct',
   '/home/armando/Documents/code/python/automate/build/py_to_exe/localpycs/struct.pyc',
   'PYMODULE'),
  ('pyimod01_archive',
   '/home/armando/Documents/code/python/automate/build/py_to_exe/localpycs/pyimod01_archive.pyc',
   'PYMODULE'),
  ('pyimod02_importers',
   '/home/armando/Documents/code/python/automate/build/py_to_exe/localpycs/pyimod02_importers.pyc',
   'PYMODULE'),
  ('pyimod03_ctypes',
   '/home/armando/Documents/code/python/automate/build/py_to_exe/localpycs/pyimod03_ctypes.pyc',
   'PYMODULE'),
  ('pyiboot01_bootstrap',
   '/home/armando/anaconda3/envs/automate/lib/python3.11/site-packages/PyInstaller/loader/pyiboot01_bootstrap.py',
   'PYSOURCE'),
  ('pyi_rth_inspect',
   '/home/armando/anaconda3/envs/automate/lib/python3.11/site-packages/PyInstaller/hooks/rthooks/pyi_rth_inspect.py',
   'PYSOURCE'),
  ('pyi_rth_pkgutil',
   '/home/armando/anaconda3/envs/automate/lib/python3.11/site-packages/PyInstaller/hooks/rthooks/pyi_rth_pkgutil.py',
   'PYSOURCE'),
  ('pyi_rth_multiprocessing',
   '/home/armando/anaconda3/envs/automate/lib/python3.11/site-packages/PyInstaller/hooks/rthooks/pyi_rth_multiprocessing.py',
   'PYSOURCE'),
  ('py_to_exe',
   '/home/armando/Documents/code/python/automate/py_to_exe.py',
   'PYSOURCE'),
  ('libpython3.11.so.1.0',
   '/home/armando/anaconda3/envs/automate/lib/libpython3.11.so.1.0',
   'BINARY'),
  ('lib-dynload/select.cpython-311-x86_64-linux-gnu.so',
   '/home/armando/anaconda3/envs/automate/lib/python3.11/lib-dynload/select.cpython-311-x86_64-linux-gnu.so',
   'EXTENSION'),
  ('lib-dynload/math.cpython-311-x86_64-linux-gnu.so',
   '/home/armando/anaconda3/envs/automate/lib/python3.11/lib-dynload/math.cpython-311-x86_64-linux-gnu.so',
   'EXTENSION'),
  ('lib-dynload/_typing.cpython-311-x86_64-linux-gnu.so',
   '/home/armando/anaconda3/envs/automate/lib/python3.11/lib-dynload/_typing.cpython-311-x86_64-linux-gnu.so',
   'EXTENSION'),
  ('lib-dynload/_statistics.cpython-311-x86_64-linux-gnu.so',
   '/home/armando/anaconda3/envs/automate/lib/python3.11/lib-dynload/_statistics.cpython-311-x86_64-linux-gnu.so',
   'EXTENSION'),
  ('lib-dynload/_opcode.cpython-311-x86_64-linux-gnu.so',
   '/home/armando/anaconda3/envs/automate/lib/python3.11/lib-dynload/_opcode.cpython-311-x86_64-linux-gnu.so',
   'EXTENSION'),
  ('lib-dynload/_pickle.cpython-311-x86_64-linux-gnu.so',
   '/home/armando/anaconda3/envs/automate/lib/python3.11/lib-dynload/_pickle.cpython-311-x86_64-linux-gnu.so',
   'EXTENSION'),
  ('lib-dynload/_hashlib.cpython-311-x86_64-linux-gnu.so',
   '/home/armando/anaconda3/envs/automate/lib/python3.11/lib-dynload/_hashlib.cpython-311-x86_64-linux-gnu.so',
   'EXTENSION'),
  ('lib-dynload/_sha3.cpython-311-x86_64-linux-gnu.so',
   '/home/armando/anaconda3/envs/automate/lib/python3.11/lib-dynload/_sha3.cpython-311-x86_64-linux-gnu.so',
   'EXTENSION'),
  ('lib-dynload/_blake2.cpython-311-x86_64-linux-gnu.so',
   '/home/armando/anaconda3/envs/automate/lib/python3.11/lib-dynload/_blake2.cpython-311-x86_64-linux-gnu.so',
   'EXTENSION'),
  ('lib-dynload/_sha256.cpython-311-x86_64-linux-gnu.so',
   '/home/armando/anaconda3/envs/automate/lib/python3.11/lib-dynload/_sha256.cpython-311-x86_64-linux-gnu.so',
   'EXTENSION'),
  ('lib-dynload/_md5.cpython-311-x86_64-linux-gnu.so',
   '/home/armando/anaconda3/envs/automate/lib/python3.11/lib-dynload/_md5.cpython-311-x86_64-linux-gnu.so',
   'EXTENSION'),
  ('lib-dynload/_sha1.cpython-311-x86_64-linux-gnu.so',
   '/home/armando/anaconda3/envs/automate/lib/python3.11/lib-dynload/_sha1.cpython-311-x86_64-linux-gnu.so',
   'EXTENSION'),
  ('lib-dynload/_sha512.cpython-311-x86_64-linux-gnu.so',
   '/home/armando/anaconda3/envs/automate/lib/python3.11/lib-dynload/_sha512.cpython-311-x86_64-linux-gnu.so',
   'EXTENSION'),
  ('lib-dynload/_random.cpython-311-x86_64-linux-gnu.so',
   '/home/armando/anaconda3/envs/automate/lib/python3.11/lib-dynload/_random.cpython-311-x86_64-linux-gnu.so',
   'EXTENSION'),
  ('lib-dynload/_bisect.cpython-311-x86_64-linux-gnu.so',
   '/home/armando/anaconda3/envs/automate/lib/python3.11/lib-dynload/_bisect.cpython-311-x86_64-linux-gnu.so',
   'EXTENSION'),
  ('lib-dynload/_csv.cpython-311-x86_64-linux-gnu.so',
   '/home/armando/anaconda3/envs/automate/lib/python3.11/lib-dynload/_csv.cpython-311-x86_64-linux-gnu.so',
   'EXTENSION'),
  ('lib-dynload/binascii.cpython-311-x86_64-linux-gnu.so',
   '/home/armando/anaconda3/envs/automate/lib/python3.11/lib-dynload/binascii.cpython-311-x86_64-linux-gnu.so',
   'EXTENSION'),
  ('lib-dynload/grp.cpython-311-x86_64-linux-gnu.so',
   '/home/armando/anaconda3/envs/automate/lib/python3.11/lib-dynload/grp.cpython-311-x86_64-linux-gnu.so',
   'EXTENSION'),
  ('lib-dynload/resource.cpython-311-x86_64-linux-gnu.so',
   '/home/armando/anaconda3/envs/automate/lib/python3.11/lib-dynload/resource.cpython-311-x86_64-linux-gnu.so',
   'EXTENSION'),
  ('lib-dynload/_lzma.cpython-311-x86_64-linux-gnu.so',
   '/home/armando/anaconda3/envs/automate/lib/python3.11/lib-dynload/_lzma.cpython-311-x86_64-linux-gnu.so',
   'EXTENSION'),
  ('lib-dynload/_bz2.cpython-311-x86_64-linux-gnu.so',
   '/home/armando/anaconda3/envs/automate/lib/python3.11/lib-dynload/_bz2.cpython-311-x86_64-linux-gnu.so',
   'EXTENSION'),
  ('lib-dynload/pyexpat.cpython-311-x86_64-linux-gnu.so',
   '/home/armando/anaconda3/envs/automate/lib/python3.11/lib-dynload/pyexpat.cpython-311-x86_64-linux-gnu.so',
   'EXTENSION'),
  ('lib-dynload/termios.cpython-311-x86_64-linux-gnu.so',
   '/home/armando/anaconda3/envs/automate/lib/python3.11/lib-dynload/termios.cpython-311-x86_64-linux-gnu.so',
   'EXTENSION'),
  ('lib-dynload/_ssl.cpython-311-x86_64-linux-gnu.so',
   '/home/armando/anaconda3/envs/automate/lib/python3.11/lib-dynload/_ssl.cpython-311-x86_64-linux-gnu.so',
   'EXTENSION'),
  ('lib-dynload/unicodedata.cpython-311-x86_64-linux-gnu.so',
   '/home/armando/anaconda3/envs/automate/lib/python3.11/lib-dynload/unicodedata.cpython-311-x86_64-linux-gnu.so',
   'EXTENSION'),
  ('lib-dynload/_contextvars.cpython-311-x86_64-linux-gnu.so',
   '/home/armando/anaconda3/envs/automate/lib/python3.11/lib-dynload/_contextvars.cpython-311-x86_64-linux-gnu.so',
   'EXTENSION'),
  ('lib-dynload/_decimal.cpython-311-x86_64-linux-gnu.so',
   '/home/armando/anaconda3/envs/automate/lib/python3.11/lib-dynload/_decimal.cpython-311-x86_64-linux-gnu.so',
   'EXTENSION'),
  ('lib-dynload/_multiprocessing.cpython-311-x86_64-linux-gnu.so',
   '/home/armando/anaconda3/envs/automate/lib/python3.11/lib-dynload/_multiprocessing.cpython-311-x86_64-linux-gnu.so',
   'EXTENSION'),
  ('lib-dynload/array.cpython-311-x86_64-linux-gnu.so',
   '/home/armando/anaconda3/envs/automate/lib/python3.11/lib-dynload/array.cpython-311-x86_64-linux-gnu.so',
   'EXTENSION'),
  ('lib-dynload/_socket.cpython-311-x86_64-linux-gnu.so',
   '/home/armando/anaconda3/envs/automate/lib/python3.11/lib-dynload/_socket.cpython-311-x86_64-linux-gnu.so',
   'EXTENSION'),
  ('lib-dynload/_posixshmem.cpython-311-x86_64-linux-gnu.so',
   '/home/armando/anaconda3/envs/automate/lib/python3.11/lib-dynload/_posixshmem.cpython-311-x86_64-linux-gnu.so',
   'EXTENSION'),
  ('lib-dynload/_posixsubprocess.cpython-311-x86_64-linux-gnu.so',
   '/home/armando/anaconda3/envs/automate/lib/python3.11/lib-dynload/_posixsubprocess.cpython-311-x86_64-linux-gnu.so',
   'EXTENSION'),
  ('lib-dynload/mmap.cpython-311-x86_64-linux-gnu.so',
   '/home/armando/anaconda3/envs/automate/lib/python3.11/lib-dynload/mmap.cpython-311-x86_64-linux-gnu.so',
   'EXTENSION'),
  ('lib-dynload/_ctypes.cpython-311-x86_64-linux-gnu.so',
   '/home/armando/anaconda3/envs/automate/lib/python3.11/lib-dynload/_ctypes.cpython-311-x86_64-linux-gnu.so',
   'EXTENSION'),
  ('lib-dynload/_queue.cpython-311-x86_64-linux-gnu.so',
   '/home/armando/anaconda3/envs/automate/lib/python3.11/lib-dynload/_queue.cpython-311-x86_64-linux-gnu.so',
   'EXTENSION'),
  ('lib-dynload/fcntl.cpython-311-x86_64-linux-gnu.so',
   '/home/armando/anaconda3/envs/automate/lib/python3.11/lib-dynload/fcntl.cpython-311-x86_64-linux-gnu.so',
   'EXTENSION'),
  ('lib-dynload/_heapq.cpython-311-x86_64-linux-gnu.so',
   '/home/armando/anaconda3/envs/automate/lib/python3.11/lib-dynload/_heapq.cpython-311-x86_64-linux-gnu.so',
   'EXTENSION'),
  ('lib-dynload/_multibytecodec.cpython-311-x86_64-linux-gnu.so',
   '/home/armando/anaconda3/envs/automate/lib/python3.11/lib-dynload/_multibytecodec.cpython-311-x86_64-linux-gnu.so',
   'EXTENSION'),
  ('lib-dynload/_codecs_jp.cpython-311-x86_64-linux-gnu.so',
   '/home/armando/anaconda3/envs/automate/lib/python3.11/lib-dynload/_codecs_jp.cpython-311-x86_64-linux-gnu.so',
   'EXTENSION'),
  ('lib-dynload/_codecs_kr.cpython-311-x86_64-linux-gnu.so',
   '/home/armando/anaconda3/envs/automate/lib/python3.11/lib-dynload/_codecs_kr.cpython-311-x86_64-linux-gnu.so',
   'EXTENSION'),
  ('lib-dynload/_codecs_iso2022.cpython-311-x86_64-linux-gnu.so',
   '/home/armando/anaconda3/envs/automate/lib/python3.11/lib-dynload/_codecs_iso2022.cpython-311-x86_64-linux-gnu.so',
   'EXTENSION'),
  ('lib-dynload/_codecs_cn.cpython-311-x86_64-linux-gnu.so',
   '/home/armando/anaconda3/envs/automate/lib/python3.11/lib-dynload/_codecs_cn.cpython-311-x86_64-linux-gnu.so',
   'EXTENSION'),
  ('lib-dynload/_codecs_tw.cpython-311-x86_64-linux-gnu.so',
   '/home/armando/anaconda3/envs/automate/lib/python3.11/lib-dynload/_codecs_tw.cpython-311-x86_64-linux-gnu.so',
   'EXTENSION'),
  ('lib-dynload/_codecs_hk.cpython-311-x86_64-linux-gnu.so',
   '/home/armando/anaconda3/envs/automate/lib/python3.11/lib-dynload/_codecs_hk.cpython-311-x86_64-linux-gnu.so',
   'EXTENSION'),
  ('lib-dynload/_datetime.cpython-311-x86_64-linux-gnu.so',
   '/home/armando/anaconda3/envs/automate/lib/python3.11/lib-dynload/_datetime.cpython-311-x86_64-linux-gnu.so',
   'EXTENSION'),
  ('lib-dynload/_elementtree.cpython-311-x86_64-linux-gnu.so',
   '/home/armando/anaconda3/envs/automate/lib/python3.11/lib-dynload/_elementtree.cpython-311-x86_64-linux-gnu.so',
   'EXTENSION'),
  ('lxml/etree.cpython-311-x86_64-linux-gnu.so',
   '/home/armando/anaconda3/envs/automate/lib/python3.11/site-packages/lxml/etree.cpython-311-x86_64-linux-gnu.so',
   'EXTENSION'),
  ('lxml/_elementpath.cpython-311-x86_64-linux-gnu.so',
   '/home/armando/anaconda3/envs/automate/lib/python3.11/site-packages/lxml/_elementpath.cpython-311-x86_64-linux-gnu.so',
   'EXTENSION'),
  ('lxml/sax.cpython-311-x86_64-linux-gnu.so',
   '/home/armando/anaconda3/envs/automate/lib/python3.11/site-packages/lxml/sax.cpython-311-x86_64-linux-gnu.so',
   'EXTENSION'),
  ('lxml/objectify.cpython-311-x86_64-linux-gnu.so',
   '/home/armando/anaconda3/envs/automate/lib/python3.11/site-packages/lxml/objectify.cpython-311-x86_64-linux-gnu.so',
   'EXTENSION'),
  ('lxml/html/diff.cpython-311-x86_64-linux-gnu.so',
   '/home/armando/anaconda3/envs/automate/lib/python3.11/site-packages/lxml/html/diff.cpython-311-x86_64-linux-gnu.so',
   'EXTENSION'),
  ('lxml/html/clean.cpython-311-x86_64-linux-gnu.so',
   '/home/armando/anaconda3/envs/automate/lib/python3.11/site-packages/lxml/html/clean.cpython-311-x86_64-linux-gnu.so',
   'EXTENSION'),
  ('lib-dynload/_asyncio.cpython-311-x86_64-linux-gnu.so',
   '/home/armando/anaconda3/envs/automate/lib/python3.11/lib-dynload/_asyncio.cpython-311-x86_64-linux-gnu.so',
   'EXTENSION'),
  ('lib-dynload/readline.cpython-311-x86_64-linux-gnu.so',
   '/home/armando/anaconda3/envs/automate/lib/python3.11/lib-dynload/readline.cpython-311-x86_64-linux-gnu.so',
   'EXTENSION'),
  ('lxml/builder.cpython-311-x86_64-linux-gnu.so',
   '/home/armando/anaconda3/envs/automate/lib/python3.11/site-packages/lxml/builder.cpython-311-x86_64-linux-gnu.so',
   'EXTENSION'),
  ('numpy/core/_multiarray_tests.cpython-311-x86_64-linux-gnu.so',
   '/home/armando/anaconda3/envs/automate/lib/python3.11/site-packages/numpy/core/_multiarray_tests.cpython-311-x86_64-linux-gnu.so',
   'EXTENSION'),
  ('lib-dynload/_json.cpython-311-x86_64-linux-gnu.so',
   '/home/armando/anaconda3/envs/automate/lib/python3.11/lib-dynload/_json.cpython-311-x86_64-linux-gnu.so',
   'EXTENSION'),
  ('numpy/core/_multiarray_umath.cpython-311-x86_64-linux-gnu.so',
   '/home/armando/anaconda3/envs/automate/lib/python3.11/site-packages/numpy/core/_multiarray_umath.cpython-311-x86_64-linux-gnu.so',
   'EXTENSION'),
  ('numpy/linalg/lapack_lite.cpython-311-x86_64-linux-gnu.so',
   '/home/armando/anaconda3/envs/automate/lib/python3.11/site-packages/numpy/linalg/lapack_lite.cpython-311-x86_64-linux-gnu.so',
   'EXTENSION'),
  ('numpy/random/mtrand.cpython-311-x86_64-linux-gnu.so',
   '/home/armando/anaconda3/envs/automate/lib/python3.11/site-packages/numpy/random/mtrand.cpython-311-x86_64-linux-gnu.so',
   'EXTENSION'),
  ('numpy/random/_sfc64.cpython-311-x86_64-linux-gnu.so',
   '/home/armando/anaconda3/envs/automate/lib/python3.11/site-packages/numpy/random/_sfc64.cpython-311-x86_64-linux-gnu.so',
   'EXTENSION'),
  ('numpy/random/_philox.cpython-311-x86_64-linux-gnu.so',
   '/home/armando/anaconda3/envs/automate/lib/python3.11/site-packages/numpy/random/_philox.cpython-311-x86_64-linux-gnu.so',
   'EXTENSION'),
  ('numpy/random/_pcg64.cpython-311-x86_64-linux-gnu.so',
   '/home/armando/anaconda3/envs/automate/lib/python3.11/site-packages/numpy/random/_pcg64.cpython-311-x86_64-linux-gnu.so',
   'EXTENSION'),
  ('numpy/random/_mt19937.cpython-311-x86_64-linux-gnu.so',
   '/home/armando/anaconda3/envs/automate/lib/python3.11/site-packages/numpy/random/_mt19937.cpython-311-x86_64-linux-gnu.so',
   'EXTENSION'),
  ('numpy/random/bit_generator.cpython-311-x86_64-linux-gnu.so',
   '/home/armando/anaconda3/envs/automate/lib/python3.11/site-packages/numpy/random/bit_generator.cpython-311-x86_64-linux-gnu.so',
   'EXTENSION'),
  ('numpy/random/_generator.cpython-311-x86_64-linux-gnu.so',
   '/home/armando/anaconda3/envs/automate/lib/python3.11/site-packages/numpy/random/_generator.cpython-311-x86_64-linux-gnu.so',
   'EXTENSION'),
  ('numpy/random/_bounded_integers.cpython-311-x86_64-linux-gnu.so',
   '/home/armando/anaconda3/envs/automate/lib/python3.11/site-packages/numpy/random/_bounded_integers.cpython-311-x86_64-linux-gnu.so',
   'EXTENSION'),
  ('numpy/random/_common.cpython-311-x86_64-linux-gnu.so',
   '/home/armando/anaconda3/envs/automate/lib/python3.11/site-packages/numpy/random/_common.cpython-311-x86_64-linux-gnu.so',
   'EXTENSION'),
  ('numpy/fft/_pocketfft_internal.cpython-311-x86_64-linux-gnu.so',
   '/home/armando/anaconda3/envs/automate/lib/python3.11/site-packages/numpy/fft/_pocketfft_internal.cpython-311-x86_64-linux-gnu.so',
   'EXTENSION'),
  ('numpy/linalg/_umath_linalg.cpython-311-x86_64-linux-gnu.so',
   '/home/armando/anaconda3/envs/automate/lib/python3.11/site-packages/numpy/linalg/_umath_linalg.cpython-311-x86_64-linux-gnu.so',
   'EXTENSION'),
  ('libcrypto.so.3',
   '/home/armando/anaconda3/envs/automate/lib/libcrypto.so.3',
   'BINARY'),
  ('libz.so.1',
   '/home/armando/anaconda3/envs/automate/lib/libz.so.1',
   'BINARY'),
  ('liblzma.so.5',
   '/home/armando/anaconda3/envs/automate/lib/liblzma.so.5',
   'BINARY'),
  ('libbz2.so.1.0',
   '/home/armando/anaconda3/envs/automate/lib/libbz2.so.1.0',
   'BINARY'),
  ('libssl.so.3',
   '/home/armando/anaconda3/envs/automate/lib/libssl.so.3',
   'BINARY'),
  ('libffi.so.8',
   '/home/armando/anaconda3/envs/automate/lib/libffi.so.8',
   'BINARY'),
  ('libtinfow.so.6',
   '/home/armando/anaconda3/envs/automate/lib/libtinfow.so.6',
   'BINARY'),
  ('libreadline.so.8',
   '/home/armando/anaconda3/envs/automate/lib/libreadline.so.8',
   'BINARY'),
  ('libstdc++.so.6', '/lib/x86_64-linux-gnu/libstdc++.so.6', 'BINARY'),
  ('libgcc_s.so.1', '/lib/x86_64-linux-gnu/libgcc_s.so.1', 'BINARY'),
  ('numpy.libs/libgfortran-040039e1.so.5.0.0',
   '/home/armando/anaconda3/envs/automate/lib/python3.11/site-packages/numpy.libs/libgfortran-040039e1.so.5.0.0',
   'BINARY'),
  ('numpy.libs/libopenblas64_p-r0-5007b62f.3.23.dev.so',
   '/home/armando/anaconda3/envs/automate/lib/python3.11/site-packages/numpy.libs/libopenblas64_p-r0-5007b62f.3.23.dev.so',
   'BINARY'),
  ('numpy.libs/libquadmath-96973f99.so.0.0.0',
   '/home/armando/anaconda3/envs/automate/lib/python3.11/site-packages/numpy.libs/libquadmath-96973f99.so.0.0.0',
   'BINARY'),
  ('base_library.zip',
   '/home/armando/Documents/code/python/automate/build/py_to_exe/base_library.zip',
   'DATA'),
  ('lxml/isoschematron/resources/xsl/RNG2Schtrn.xsl',
   '/home/armando/anaconda3/envs/automate/lib/python3.11/site-packages/lxml/isoschematron/resources/xsl/RNG2Schtrn.xsl',
   'DATA'),
  ('lxml/isoschematron/resources/xsl/iso-schematron-xslt1/iso_dsdl_include.xsl',
   '/home/armando/anaconda3/envs/automate/lib/python3.11/site-packages/lxml/isoschematron/resources/xsl/iso-schematron-xslt1/iso_dsdl_include.xsl',
   'DATA'),
  ('lxml/isoschematron/resources/xsl/iso-schematron-xslt1/iso_svrl_for_xslt1.xsl',
   '/home/armando/anaconda3/envs/automate/lib/python3.11/site-packages/lxml/isoschematron/resources/xsl/iso-schematron-xslt1/iso_svrl_for_xslt1.xsl',
   'DATA'),
  ('lxml/isoschematron/resources/xsl/iso-schematron-xslt1/iso_abstract_expand.xsl',
   '/home/armando/anaconda3/envs/automate/lib/python3.11/site-packages/lxml/isoschematron/resources/xsl/iso-schematron-xslt1/iso_abstract_expand.xsl',
   'DATA'),
  ('lxml/isoschematron/resources/xsl/XSD2Schtrn.xsl',
   '/home/armando/anaconda3/envs/automate/lib/python3.11/site-packages/lxml/isoschematron/resources/xsl/XSD2Schtrn.xsl',
   'DATA'),
  ('lxml/isoschematron/resources/rng/iso-schematron.rng',
   '/home/armando/anaconda3/envs/automate/lib/python3.11/site-packages/lxml/isoschematron/resources/rng/iso-schematron.rng',
   'DATA'),
  ('lxml/isoschematron/resources/xsl/iso-schematron-xslt1/iso_schematron_message.xsl',
   '/home/armando/anaconda3/envs/automate/lib/python3.11/site-packages/lxml/isoschematron/resources/xsl/iso-schematron-xslt1/iso_schematron_message.xsl',
   'DATA'),
  ('lxml/isoschematron/resources/xsl/iso-schematron-xslt1/iso_schematron_skeleton_for_xslt1.xsl',
   '/home/armando/anaconda3/envs/automate/lib/python3.11/site-packages/lxml/isoschematron/resources/xsl/iso-schematron-xslt1/iso_schematron_skeleton_for_xslt1.xsl',
   'DATA'),
  ('lxml/isoschematron/resources/xsl/iso-schematron-xslt1/readme.txt',
   '/home/armando/anaconda3/envs/automate/lib/python3.11/site-packages/lxml/isoschematron/resources/xsl/iso-schematron-xslt1/readme.txt',
   'DATA'),
  ('libgfortran-040039e1.so.5.0.0',
   'numpy.libs/libgfortran-040039e1.so.5.0.0',
   'SYMLINK'),
  ('libopenblas64_p-r0-5007b62f.3.23.dev.so',
   'numpy.libs/libopenblas64_p-r0-5007b62f.3.23.dev.so',
   'SYMLINK'),
  ('libquadmath-96973f99.so.0.0.0',
   'numpy.libs/libquadmath-96973f99.so.0.0.0',
   'SYMLINK')],
 'libpython3.11.so.1.0',
 False,
 False,
 False,
 [],
 None,
 None,
 None)
